บทที่ 8 การนำเข้าข้อมูล (importing data) | R สำหรับวิทยาการข้อมูลทางการศึกษา
…
จากรูปจะเห็นว่าไฟล์ข้อมูลดังกล่าวไม่ได้มีแต่ตารางข้อมูลที่ใช้ในการวิเคราะห์เท่านั้น ยังมีรายละเอียดในส่วนอื่น ๆ ก่อนที่จะเริ่มต้น ณ แถวที่ 4 ของ worksheet การจะนำข้อมูลในตารางเข้าสู่โปรแกรม R ได้อย่างถูกต้องจำเป็นต้องข้าม 3 แถวแรกของ worksheet ไปก่อน การนำเข้าไฟล์ข้อมูลที่มีลักษณะดังกล่าวสามารถทำได้ด้วยการระบุอาร์กิวเมนท์ skip ในฟังก์ชัน read_excel() โดยกำหนดให้มีค่าเท่ากับจำนวนบรรทัดที่ต้องการให้ข้าม ดังนี้

dat.xlsx3<-read_excel("KAS.xlsx", skip=3, col_names=T)
dat
## # A tibble: 384 x 5
##    gender location knowledge attitude skill
##     <dbl>    <dbl>     <dbl>    <dbl> <dbl>
##  1      2        1      3.67     4.86   4  
##  2      2        1      3.67     4.43   3.2
##  3      2        1      2.92     3      3.6
##  4      1        1      3.08     3      3.6
##  5      1        1      3        3.14   2.8
##  6      1        1      3.83     4      4  
##  7      1        1      3.08     2.57   3.2
##  8      1        1      3.42     3.5    3.8
##  9      1        1      3.67     4.57   3.2
## 10      2        1      2.5      3.57   4.2
## # … with 374 more rows
…
package-foreign ยังสามารถใช้นำเข้าไฟล์ข้อมูลจากโปรแกรมวิเคราะห์ข้อมูลทางสถิติอื่น ๆ ได้อีกด้วย เช่น ไฟล์ข้อมูลจากโปรแกรม SAS สามารถนำเข้าได้ด้วยฟังก์ชัน read.xport() ไฟล์ข้อมูลจากโปรแกรม Minitab สามารถนำเข้าได้ด้วยฟังก์ชัน read.mtp() ไฟล์ข้อมูลจากโปรแกรม Systat สามารถนำเข้าได้ด้วยฟังก์ชัน read.systat() เป็นต้น

อีกวิธีการหนึ่งที่สามารถใช้นำเข้าไฟล์ข้อมูลจากโปรแกรม SPSS และโปรแกรมวิเคราะห์ข้อมูลสำเร็จรูปทางสถิติอื่น ๆ คือการใช้ package-haven ผู้ใช้จำเป็นต้องดาวน์โหลดและติดตั้ง package ดังกล่าวก่อนโดยพิมพ์คำสั่ง install.packages("haven") จากนั้นเรียก package ก่อนการใช้งานด้วยคำสั่ง library(haven) โดยในกรณีที่ต้องการนำเข้าไฟล์ .sav สามารถทำได้โดยใช้ฟังก์ชัน read_sav() หรือ read_spss() ที่มีอาร์กิวเมนท์สำคัญคือ file="..." ที่ใช้ระบุชื่อไฟล์นามสกุล .sav ที่ต้องการนำเข้า และ col_select ที่ใช้ระบุคอลัมน์ของไฟล์ .sav ที่ต้องการนำเข้า ดังตัวอย่างต่อไปนี้

dat.sav2<-read_sav("AchSolve.sav")
dat.sav2
## # A tibble: 36 x 3
##      ach solve group    
##    <dbl> <dbl> <dbl+lbl>
##  1  49.6   1.2 1        
##  2  43.6   6.3 1        
##  3  50.3   1.8 1        
##  4  34.4   5.7 1        
##  5  56.8   5.9 1        
##  6  32.8   8   1        
##  7  56.9   4.3 1        
##  8  49.3   7.3 1        
##  9  60.7   5.4 1        
## 10  64.5   8.5 1        
## # ... with 26 more rows
…
