โมเดลเชิงเส้นระดับลดหลั่น
…
ลองพิจารณาด้วยค่าสถิติ

> dat1%>%summarise(mean=mean(mathach), sd=sd(mathach))

      mean       sd
1 12.74785 6.878246

> dat1%>%group_by(schoolid)%>%summarise(mean=mean(mathach), sd=sd(mathach))

# A tibble: 160 x 3
   schoolid  mean    sd
 * <fct>    <dbl> <dbl>
 1 1224      9.72  7.59
 2 1288     13.5   7.02
 3 1296      7.64  5.35
 4 1308     16.3   6.11
 5 1317     13.2   5.46
 6 1358     11.2   5.88
 7 1374      9.73  8.36
 8 1433     19.7   3.88
 9 1436     18.1   4.55
10 1461     16.8   6.95
# … with 150 more rows
…
