My Website: Onet Dataset
…
.
FALSE 
11919 

duplicated(schooid_m6)%>%table()

.
FALSE 
 3898 

# identify missing data
library(naniar)
miss_var_summary(onet_p6)

# A tibble: 29 × 3
   variable     n_miss pct_miss
   <chr>         <int>    <dbl>
 1 AREA_CODE_P6   2429  7.91   
 2 AREA_NAME_P6   2429  7.91   
 3 math_avg          1  0.00326
 4 math_sd           1  0.00326
 5 math_min          1  0.00326
 6 math_max          1  0.00326
 7 SCHOOL_CODE       0  0      
 8 SCHOOL_NAME       0  0      
 9 AMPH_ID           0  0      
10 AMPH_NAME         0  0      
# … with 19 more rows

miss_var_summary(onet_m3)

# A tibble: 29 × 3
   variable     n_miss pct_miss
   <chr>         <int>    <dbl>
 1 AREA_CODE_M3   1091     9.15
 2 AREA_NAME_M3   1091     9.15
 3 SCHOOL_CODE       0     0   
 4 SCHOOL_NAME       0     0   
 5 AMPH_ID           0     0   
 6 AMPH_NAME         0     0   
 7 PROV_ID           0     0   
 8 PROV_NAME         0     0   
 9 REGION_NAME       0     0   
10 URBAN_ZONE        0     0   
# … with 19 more rows

miss_var_summary(onet_m6)

# A tibble: 33 × 3
   variable     n_miss pct_miss
   <chr>         <int>    <dbl>
 1 AREA_CODE_M6    502  12.9   
 2 AREA_NAME_M6    502  12.9   
 3 eng_avg           1   0.0257
 4 sci_avg           1   0.0257
 5 eng_sd            1   0.0257
 6 sci_sd            1   0.0257
 7 eng_min           1   0.0257
 8 sci_min           1   0.0257
 9 eng_max           1   0.0257
10 sci_max           1   0.0257
# … with 23 more rows
…
