หลักการเรียนรู้ของเครื่องและการประยุกต์
…
ภายใต้ framework ของ tidymodels จะใช้ฟังก์ชันใน package parsnip เพื่อ fitting model ทำนายดังกล่าว package ดังกล่าว จุดเด่นของ parsnip คือถูกออกแบบมาเพื่อเป็น interface สำหรับ fit supervised learning model ที่มีรูปแบบการใช้คำสั่งเป็นไวยกรณ์แบบเดียว

(4) Prediction

ผู้วิเคราะห์สามารถนำโมเดลที่ผ่านการ train เรียบร้อยแล้วไปใช้หาค่าทำนาย โดยส่งผ่านโมเดลที่ train แล้ว (ในที่นี้คือ fit_lm) ไปยังฟังก์ชัน predict() ที่มีอาร์กิวเมนท์สำคัญคือ new_data ตัวอย่างด้านล่างแสดงนำ fit_lm ไปทำนายตัวแปร hwy ในชุดข้อมูลทดสอบ ผลลัพธ์ที่ได้จากการทำนายจะเป็นตารางแบบ tibble ที่แต่ละ row คือค่าทำนายของหน่วยข้อมูลใน row เดียวกันกับใน test_str ดังนี้

hwy_pred <- fit_lm %>%
              predict(new_data = test_str)
hwy_pred

# A tibble: 60 × 1
   .pred
   <dbl>
 1  29.1
 2  25.0
 3  20.9
 4  23.6
 5  23.6
 6  19.5
 7  19.5
 8  18.1
 9  22.2
10  20.9
# … with 50 more rows

เมื่อได้ค่าทำนายในชุดข้อมูลทดสอบมาแล้ว ขั้นตอนถัดไปคือการประเมินประสิทธิภาพของโมเดลทำนาย โดยทั่วไปผู้วิเคราะห์มักจะรวมค่าทำนายที่ได้ (ในที่นี้คือ hwy_pred) ไปไว้อยู่ภายในชุดข้อมูลทดสอบ การดำเนินการนี้สามารถทำได้หลายวิธีการขึ้นอยู่กับว่าถนัดจะดำเนินการแบบนี้ ในตัวอย่างนี้จะใช้ฟังก์ชัน bind_cols()

test_results <- test_str %>%
                  dplyr::select(hwy, cty) %>%
                  bind_cols(hwy_pred)
test_results

# A tibble: 60 × 3
     hwy   cty .pred
   <int> <int> <dbl>
 1    29    21  29.1
 2    26    18  25.0
 3    25    15  20.9
 4    25    17  23.6
 5    25    17  23.6
 6    20    14  19.5
 7    20    14  19.5
 8    17    13  18.1
 9    26    16  22.2
10    23    15  20.9
# … with 50 more rows
…
ในกรณีที่ต้องการนำการจัดการข้อมูลที่ train ไว้ในขั้นที่ 3 ไปใช้กับชุดข้อมูลอื่นเช่น salary_test สามารถเขียนคำสั่งได้ดังนี้

salary_test_baked <- salary_rec_prep %>% bake(new_data = salary_test)
salary_test_baked

# A tibble: 80 × 6
   rank     discipline yrs.since.phd yrs.service sex   salary
   <fct>    <fct>              <int>       <int> <fct>  <dbl>
 1 AsstProf B                      4           3 Male    4.90
 2 Prof     A                     36          31 Male    5.01
 3 AsstProf B                      5           3 Male    4.92
 4 AsstProf B                     11           0 Male    4.89
 5 Prof     B                     13           9 Male    5.07
 6 AsstProf B                      4           2 Male    4.90
 7 Prof     B                     40          27 Male    5.01
 8 Prof     B                     12          11 Male    5.04
 9 Prof     B                     16           9 Male    5.03
10 AsstProf B                      8           3 Male    4.88
# … with 70 more rows
…
tidymodels workflow (ดัดแปลงจาก Mark Khun)

คำสั่งต่อไปนี้แสดงการปรับแต่ง hyperparameter ด้วย workflow ของ tidymodels ดังกล่าว

# create repeated 10-folds CV datasets
folds_data <- vfold_cv(data = train, 
                       v = 10, 
                       repeats = 3)
folds_data

#  10-fold cross-validation repeated 3 times 
# A tibble: 30 × 3
   splits           id      id2   
   <list>           <chr>   <chr> 
 1 <split [285/32]> Repeat1 Fold01
 2 <split [285/32]> Repeat1 Fold02
 3 <split [285/32]> Repeat1 Fold03
 4 <split [285/32]> Repeat1 Fold04
 5 <split [285/32]> Repeat1 Fold05
 6 <split [285/32]> Repeat1 Fold06
 7 <split [285/32]> Repeat1 Fold07
 8 <split [286/31]> Repeat1 Fold08
 9 <split [286/31]> Repeat1 Fold09
10 <split [286/31]> Repeat1 Fold10
# … with 20 more rows
…
Main Arguments:
  penalty = tune()
  mixture = 0

Computational engine: glmnet 

ผลลัพธ์ข้างต้นจะเห็นว่า workflow ช่วยรวบรวมส่วนของการ preprocessing และ modeling ให้อยู่ภายใต้ object เดียวกัน เมื่อสร้าง workflow เรียบร้อยแล้ว ขั้นตอนถัดไปคือการสร้าง grid ของ hyperparameters เพื่อใช้สำหรับการเฟ้นหาชุดของ hyperparameter ที่มีความเหมาะสมกล่าวคือทำให้ประสิทธิภาพการทำนายของโมเดลมีสูงที่สุด ดังที่ได้กล่าวในบทที่ 5 ว่าการกำหนด grid อาจทำได้สองวิธี วิธีการแรกคือการใช้ regular grid search ที่จะสร้าง grid จาก combination ของค่าที่เป็นไปได้ทั้งหมดของ hyperparameters ที่สนใจ การสร้าง grid ดังกล่าวสามารถทำได้หลายวิธีการ โดยใน tidymodels สามารถทำได้ด้วยฟังก์ชัน grid_regular() ของ package dial ดังตัวอย่างต่อไปนี้

p<-parameters(penalty(range=c(-100,100)))
regular_grid <- grid_regular(p, levels=50)
regular_grid

# A tibble: 50 × 1
     penalty
       <dbl>
 1 1   e-100
 2 1.21e- 96
 3 1.46e- 92
 4 1.76e- 88
 5 2.12e- 84
 6 2.56e- 80
 7 3.09e- 76
 8 3.73e- 72
 9 4.50e- 68
10 5.43e- 64
# … with 40 more rows
…
จากการทำ workflow ข้างต้นผู้วิเคราะห์สามารถเรียกดูผลการประเมินประสิทธิภาพของโมเดลทำนายที่คำนวณจากการทำ cross-validation โดยใช้ฟังก์ชัน collect_metric() ฟังก์ชันนี้มีอาร์กิวเมนท์ที่ควรรู้จักคือ summarize ค่าเริ่มต้นจะกำหนดให้เป็น TRUE ผลลัพธ์ที่ได้จะเป็นค่าสรุปประสิทธิภาพการทำนายของโมเดลในแต่ละ grid แต่ถ้ากำหนดให้เป็น FALSE ผลลัพธ์ที่ได้จะลงรายละเอียดของประสิทธิภาพเป็นราย validation dataset

tune_regular %>% 
  collect_metrics(summarize = TRUE)

# A tibble: 150 × 7
     penalty .metric .estimator      mean     n  std_err .config              
       <dbl> <chr>   <chr>          <dbl> <int>    <dbl> <chr>                
 1 1   e-100 mae     standard   17108.       30 515.     Preprocessor1_Model01
 2 1   e-100 rmse    standard   22461.       30 717.     Preprocessor1_Model01
 3 1   e-100 rsq     standard       0.448    30   0.0220 Preprocessor1_Model01
 4 1.21e- 96 mae     standard   17108.       30 515.     Preprocessor1_Model02
 5 1.21e- 96 rmse    standard   22461.       30 717.     Preprocessor1_Model02
 6 1.21e- 96 rsq     standard       0.448    30   0.0220 Preprocessor1_Model02
 7 1.46e- 92 mae     standard   17108.       30 515.     Preprocessor1_Model03
 8 1.46e- 92 rmse    standard   22461.       30 717.     Preprocessor1_Model03
 9 1.46e- 92 rsq     standard       0.448    30   0.0220 Preprocessor1_Model03
10 1.76e- 88 mae     standard   17108.       30 515.     Preprocessor1_Model04
# … with 140 more rows
…
tune_random %>% 
  collect_metrics(summarize = FALSE)

# A tibble: 900 × 7
   id      id2     penalty .metric .estimator .estimate .config              
   <chr>   <chr>     <dbl> <chr>   <chr>          <dbl> <chr>                
 1 Repeat1 Fold01 4.28e-71 rsq     standard       0.526 Preprocessor1_Model01
 2 Repeat1 Fold01 4.28e-71 rmse    standard   23052.    Preprocessor1_Model01
 3 Repeat1 Fold01 4.28e-71 mae     standard   15245.    Preprocessor1_Model01
 4 Repeat1 Fold02 4.28e-71 rsq     standard       0.397 Preprocessor1_Model01
 5 Repeat1 Fold02 4.28e-71 rmse    standard   24661.    Preprocessor1_Model01
 6 Repeat1 Fold02 4.28e-71 mae     standard   19846.    Preprocessor1_Model01
 7 Repeat1 Fold03 4.28e-71 rsq     standard       0.548 Preprocessor1_Model01
 8 Repeat1 Fold03 4.28e-71 rmse    standard   19751.    Preprocessor1_Model01
 9 Repeat1 Fold03 4.28e-71 mae     standard   14601.    Preprocessor1_Model01
10 Repeat1 Fold04 4.28e-71 rsq     standard       0.680 Preprocessor1_Model01
# … with 890 more rows

นอกจากนี้ยังมีฟังก์ชัน collect_predictions() ที่สามารถใช้เรียกค่าทำนายของตัวแปรตามที่ได้จากแต่ละ resample และชุดของ hyperparameter ภายใน grid การใช้ฟังก์ชันนี้ทำในทำนองเดียวกับ collect_metrics() ดังตัวอย่างต่อไปนี้

tune_regular %>%
  collect_predictions()

# A tibble: 47,550 × 7
   id      id2      .pred  .row penalty salary .config              
   <chr>   <chr>    <dbl> <int>   <dbl>  <int> <chr>                
 1 Repeat1 Fold01 134570.     7  1e-100 147765 Preprocessor1_Model01
 2 Repeat1 Fold01  85535.    23  1e-100  80139 Preprocessor1_Model01
 3 Repeat1 Fold01 130411.    24  1e-100 144651 Preprocessor1_Model01
 4 Repeat1 Fold01  90509.    32  1e-100 104121 Preprocessor1_Model01
 5 Repeat1 Fold01 104737.    40  1e-100 105350 Preprocessor1_Model01
 6 Repeat1 Fold01 119918.    41  1e-100 104350 Preprocessor1_Model01
 7 Repeat1 Fold01 121175.    48  1e-100 124750 Preprocessor1_Model01
 8 Repeat1 Fold01  85847.    51  1e-100  82379 Preprocessor1_Model01
 9 Repeat1 Fold01 100900.    58  1e-100 100000 Preprocessor1_Model01
10 Repeat1 Fold01 122968.    63  1e-100 194800 Preprocessor1_Model01
# … with 47,540 more rows
…
tuning_results %>% collect_metrics(summarize = TRUE)

# A tibble: 57 × 8
    mtry min_n .metric .estimator  mean     n std_err .config              
   <int> <int> <chr>   <chr>      <dbl> <int>   <dbl> <chr>                
 1     5    18 roc_auc binary     0.859    50 0.0113  Preprocessor1_Model01
 2     5    18 sens    binary     0.688    50 0.0205  Preprocessor1_Model01
 3     5    18 spec    binary     0.955    50 0.00658 Preprocessor1_Model01
 4     1    21 roc_auc binary     0.877    50 0.0100  Preprocessor1_Model02
 5     1    21 sens    binary     0.669    50 0.0199  Preprocessor1_Model02
 6     1    21 spec    binary     0.964    50 0.00570 Preprocessor1_Model02
 7     4    14 roc_auc binary     0.856    50 0.0117  Preprocessor1_Model03
 8     4    14 sens    binary     0.708    50 0.0195  Preprocessor1_Model03
 9     4    14 spec    binary     0.950    50 0.00827 Preprocessor1_Model03
10     4    33 roc_auc binary     0.864    50 0.0110  Preprocessor1_Model04
# … with 47 more rows
…
   mtry min_n
40    5    45
41    1    50
42    2    50
43    3    50
44    4    50
45    5    50

crossing(
  mtry = 1:5,
  min_n = seq(10,50,5)
)

# A tibble: 45 × 2
    mtry min_n
   <int> <dbl>
 1     1    10
 2     1    15
 3     1    20
 4     1    25
 5     1    30
 6     1    35
 7     1    40
 8     1    45
 9     1    50
10     2    10
# … with 35 more rows
…
i 1 of 2 tuning:     embed_reg_logit

✔ 1 of 2 tuning:     embed_reg_logit (6m 24.8s)

i 2 of 2 tuning:     simple_cart

✔ 2 of 2 tuning:     simple_cart (6m 26.9s)

rank_results(all_tune)

# A tibble: 200 × 9
   wflow_id    .config           .metric  mean std_err     n prepr…¹ model  rank
   <chr>       <chr>             <chr>   <dbl>   <dbl> <int> <chr>   <chr> <int>
 1 simple_cart Preprocessor1_Mo… accura… 0.903 0.00627    50 recipe  deci…     1
 2 simple_cart Preprocessor1_Mo… roc_auc 0.938 0.00525    50 recipe  deci…     1
 3 simple_cart Preprocessor1_Mo… sens    0.899 0.00991    50 recipe  deci…     1
 4 simple_cart Preprocessor1_Mo… spec    0.906 0.00926    50 recipe  deci…     1
 5 simple_cart Preprocessor1_Mo… accura… 0.902 0.00562    50 recipe  deci…     2
 6 simple_cart Preprocessor1_Mo… roc_auc 0.904 0.00528    50 recipe  deci…     2
 7 simple_cart Preprocessor1_Mo… sens    0.842 0.0101     50 recipe  deci…     2
 8 simple_cart Preprocessor1_Mo… spec    0.960 0.00507    50 recipe  deci…     2
 9 simple_cart Preprocessor1_Mo… accura… 0.901 0.00625    50 recipe  deci…     3
10 simple_cart Preprocessor1_Mo… roc_auc 0.938 0.00525    50 recipe  deci…     3
# … with 190 more rows, and abbreviated variable name ¹​preprocessor
…
simple_cart_results<- all_tune %>% 
  extract_workflow_set_result(id = "simple_cart")
simple_cart_results

# Tuning results
# 10-fold cross-validation repeated 5 times 
# A tibble: 50 × 5
   splits           id      id2    .metrics           .notes          
   <list>           <chr>   <chr>  <list>             <list>          
 1 <split [337/38]> Repeat1 Fold01 <tibble [100 × 6]> <tibble [0 × 3]>
 2 <split [337/38]> Repeat1 Fold02 <tibble [100 × 6]> <tibble [0 × 3]>
 3 <split [337/38]> Repeat1 Fold03 <tibble [100 × 6]> <tibble [0 × 3]>
 4 <split [337/38]> Repeat1 Fold04 <tibble [100 × 6]> <tibble [0 × 3]>
 5 <split [337/38]> Repeat1 Fold05 <tibble [100 × 6]> <tibble [0 × 3]>
 6 <split [338/37]> Repeat1 Fold06 <tibble [100 × 6]> <tibble [0 × 3]>
 7 <split [338/37]> Repeat1 Fold07 <tibble [100 × 6]> <tibble [0 × 3]>
 8 <split [338/37]> Repeat1 Fold08 <tibble [100 × 6]> <tibble [0 × 3]>
 9 <split [338/37]> Repeat1 Fold09 <tibble [100 × 6]> <tibble [0 × 3]>
10 <split [338/37]> Repeat1 Fold10 <tibble [100 × 6]> <tibble [0 × 3]>
# … with 40 more rows
…
